<svg id="WA_WHITE" xmlns="http://www.w3.org/2000/svg" width="100" height="100" viewBox="0 0 100 100">
  <rect id="Rectangle_165" data-name="Rectangle 165" width="100" height="100" rx="50" transform="translate(0 0)" fill="#fff"/>
  <path id="Union_5" data-name="Union 5" d="M10.11,47.611,1.073,50.374,3.284,39.53a26.71,26.71,0,1,1,6.826,8.081Z" transform="translate(23.307 23.307)" fill="none" stroke="#9b1f15" stroke-width="5"/>
  <path id="Path_782" data-name="Path 782" d="M28.652,21.67a17.257,17.257,0,0,1-5.324-.845,1.474,1.474,0,0,0-1.523.362l-2.368,2.971a22.9,22.9,0,0,1-10.391-10.3l2.941-2.5a1.539,1.539,0,0,0,.362-1.538,16.819,16.819,0,0,1-.845-5.324A1.506,1.506,0,0,0,10.013,3H4.795C3.98,3,3,3.362,3,4.493A25.867,25.867,0,0,0,28.652,30.145a1.582,1.582,0,0,0,1.493-1.78v-5.2A1.506,1.506,0,0,0,28.652,21.67Z" transform="translate(33.427 33.427)" fill="#9b1f15"/>
</svg>
